<?xml version="1.0" encoding="utf-8"?>
<!-- Generator: Adobe Illustrator 19.0.0, SVG Export Plug-In . SVG Version: 6.00 Build 0)  -->
<svg version="1.1" id="Layer_1" xmlns="http://www.w3.org/2000/svg" xmlns:xlink="http://www.w3.org/1999/xlink" x="0px" y="0px"
	 viewBox="-106 351.1 398.1 90.9" style="enable-background:new -106 351.1 398.1 90.9;" xml:space="preserve">
<style type="text/css">
	.st0{fill:#2C2B7C;}
</style>
<path class="st0" d="M-106,352.5h10v7.2c1.6-2.3,3.6-4.2,5.9-5.8c2.4-1.6,5.3-2.3,8.8-2.3c2.6,0,5.1,0.5,7.5,1.5
	c2.4,1,4.6,2.4,6.4,4.4c1.9,1.9,3.4,4.3,4.6,7.1c1.1,2.8,1.7,6,1.7,9.6v0.2c0,3.6-0.6,6.8-1.7,9.6c-1.1,2.8-2.6,5.2-4.5,7.1
	c-1.9,1.9-4,3.4-6.5,4.4c-2.4,1-4.9,1.5-7.5,1.5c-3.6,0-6.5-0.8-8.9-2.3c-2.4-1.5-4.3-3.3-5.8-5.3v19.7v25.8h-10v-25.8V352.5z
	 M-83.5,388.2c1.7,0,3.3-0.3,4.8-1c1.5-0.7,2.8-1.6,3.9-2.8c1.1-1.2,2-2.6,2.7-4.4c0.7-1.7,1-3.7,1-5.8v-0.1c0-2.1-0.3-4-1-5.7
	c-0.7-1.7-1.6-3.2-2.7-4.4c-1.1-1.2-2.4-2.1-3.9-2.8c-1.5-0.7-3.1-1-4.8-1c-1.7,0-3.3,0.3-4.9,1c-1.5,0.7-2.9,1.6-4,2.8
	c-1.2,1.2-2.1,2.7-2.8,4.4c-0.7,1.7-1,3.6-1,5.7v0.2c0,2.1,0.3,4,1,5.7c0.7,1.7,1.6,3.2,2.8,4.4c1.2,1.2,2.5,2.1,4,2.8
	C-86.9,387.9-85.2,388.2-83.5,388.2"/>
<path class="st0" d="M-34.7,396.4c-3.1,0-6-0.5-8.8-1.6c-2.7-1.1-5.1-2.6-7.1-4.6s-3.6-4.3-4.7-7.1c-1.2-2.8-1.7-5.8-1.7-9.2v-0.2
	c0-3.1,0.5-6.1,1.6-8.8c1-2.7,2.5-5.1,4.4-7.2s4.1-3.7,6.7-4.9c2.6-1.1,5.4-1.7,8.5-1.7c3.5,0,6.5,0.6,9.1,1.9
	c2.6,1.3,4.8,3,6.5,5.1s3,4.6,3.9,7.4c0.9,2.8,1.3,5.8,1.3,8.9c0,0.4,0,0.9,0,1.4s-0.1,0.9-0.1,1.4H-47c0.5,3.6,2,6.3,4.2,8.2
	c2.3,1.9,5,2.8,8.3,2.8c2.5,0,4.6-0.4,6.4-1.3s3.6-2.2,5.3-3.9l5.8,5.2c-2.1,2.5-4.6,4.4-7.4,5.9C-27.2,395.7-30.7,396.4-34.7,396.4
	 M-24.8,370.7c-0.2-1.6-0.5-3.1-1.1-4.5c-0.5-1.4-1.3-2.6-2.2-3.6c-0.9-1-2-1.8-3.3-2.4s-2.8-0.9-4.4-0.9c-3.1,0-5.6,1.1-7.6,3.2
	s-3.2,4.9-3.7,8.3h22.3V370.7z"/>
<path class="st0" d="M-11.1,352.5h10v9.8c1.4-3.3,3.3-5.9,5.8-7.9s5.7-2.9,9.5-2.7v10.5h-0.6c-2.2,0-4.2,0.4-6,1.1
	c-1.8,0.7-3.4,1.8-4.7,3.2c-1.3,1.4-2.3,3.2-3,5.4c-0.7,2.2-1.1,4.7-1.1,7.5v16.5h-10L-11.1,352.5L-11.1,352.5z"/>
<path class="st0" d="M19.2,352.5h10v6.6c0.7-1,1.5-1.9,2.3-2.8c0.8-0.9,1.8-1.7,2.8-2.4c1.1-0.7,2.3-1.3,3.6-1.7s2.8-0.6,4.5-0.6
	c3.1,0,5.8,0.7,7.9,2.1c2.2,1.4,3.8,3.3,5,5.6c1.8-2.3,3.8-4.2,6.2-5.6s5.2-2.1,8.5-2.1c4.8,0,8.5,1.4,11.2,4.3c2.7,2.9,4,7,4,12.3
	v27.7h-10v-24.6c0-3.4-0.8-6.1-2.3-7.9c-1.5-1.8-3.7-2.7-6.5-2.7c-2.7,0-5,0.9-6.7,2.8c-1.7,1.8-2.6,4.5-2.6,8V396h-10v-24.8
	c0-3.4-0.8-6-2.3-7.8c-1.5-1.8-3.7-2.7-6.5-2.7s-5,1-6.7,2.9s-2.5,4.6-2.5,8V396h-10v-43.5H19.2z"/>
<path class="st0" d="M120.2,395.9v-5.3c-1.5,1.8-3.4,3.2-5.7,4.4c-2.3,1.2-5.1,1.8-8.4,1.8c-2.1,0-4.1-0.3-5.9-0.9
	c-1.9-0.6-3.5-1.4-4.9-2.6c-1.4-1.1-2.5-2.5-3.4-4.2c-0.8-1.7-1.3-3.6-1.3-5.8v-0.2c0-2.4,0.4-4.5,1.3-6.3c0.9-1.8,2.1-3.3,3.7-4.4
	c1.6-1.2,3.4-2.1,5.6-2.6c2.2-0.6,4.5-0.9,7-0.9c2.6,0,4.9,0.2,6.7,0.5c1.8,0.3,3.6,0.8,5.3,1.3v-0.8c0-3-0.9-5.3-2.8-6.9
	c-1.8-1.6-4.5-2.4-7.9-2.4c-2.5,0-4.7,0.2-6.6,0.7c-1.9,0.5-3.9,1.2-5.8,2l-2.7-8c2.4-1.1,4.9-2,7.4-2.6c2.5-0.7,5.6-1,9.1-1
	c6.5,0,11.3,1.6,14.4,4.8c3.1,3.2,4.7,7.7,4.7,13.5v25.7h-9.8V395.9z M120.5,377.8c-1.3-0.5-2.8-0.9-4.5-1.2s-3.6-0.5-5.5-0.5
	c-3.1,0-5.6,0.6-7.3,1.8c-1.8,1.2-2.6,2.9-2.6,4.9v0.2c0,2.1,0.8,3.7,2.4,4.8c1.6,1.1,3.6,1.6,6,1.6c1.6,0,3.2-0.2,4.6-0.7
	c1.4-0.4,2.6-1.1,3.7-1.9c1-0.8,1.9-1.8,2.4-2.9c0.6-1.1,0.9-2.4,0.9-3.7L120.5,377.8L120.5,377.8z"/>
<path class="st0" d="M135.8,352.5h10v6.8c0.7-1.1,1.5-2,2.3-2.9c0.8-0.9,1.8-1.7,3-2.4c1.1-0.7,2.4-1.3,3.7-1.7
	c1.3-0.4,2.9-0.6,4.6-0.6c4.9,0,8.7,1.5,11.4,4.5c2.7,3,4,7.1,4,12.2V396h-10v-24.7c0-3.4-0.8-6-2.4-7.8c-1.6-1.8-3.9-2.8-6.8-2.8
	s-5.2,0.9-7,2.8c-1.8,1.9-2.7,4.5-2.7,7.9v24.5h-10v-43.4H135.8z"/>
<path class="st0" d="M197.9,396.8c-3.1,0-6.3-0.6-9.5-1.7s-6.2-2.7-8.9-4.9l4.4-6.8c2.4,1.8,4.8,3.1,7.2,4c2.4,0.9,4.8,1.4,7,1.4
	c2.1,0,3.8-0.4,5-1.3c1.2-0.8,1.8-2,1.8-3.4v-0.2c0-0.8-0.3-1.5-0.8-2.1c-0.5-0.6-1.2-1.1-2.1-1.6c-0.9-0.4-1.9-0.8-3.1-1.2
	s-2.4-0.8-3.7-1.1c-1.6-0.4-3.2-1-4.8-1.6c-1.6-0.6-3.1-1.4-4.4-2.3c-1.3-1-2.3-2.1-3.2-3.6c-0.8-1.4-1.2-3.2-1.2-5.3v-0.2
	c0-2,0.4-3.9,1.2-5.5c0.8-1.6,1.9-3,3.3-4.2c1.4-1.2,3-2,4.9-2.6s3.9-0.9,6-0.9c2.7,0,5.5,0.4,8.3,1.3s5.3,2.1,7.7,3.7l-3.9,7.1
	c-2.1-1.3-4.2-2.3-6.3-3c-2.1-0.7-4.1-1.1-5.9-1.1c-1.9,0-3.4,0.4-4.5,1.2c-1.1,0.8-1.6,1.9-1.6,3.1v0.2c0,0.8,0.3,1.4,0.8,2
	c0.5,0.6,1.3,1.1,2.2,1.6c0.9,0.5,1.9,0.9,3.1,1.3s2.4,0.8,3.7,1.2c1.6,0.5,3.2,1.1,4.8,1.7c1.6,0.7,3,1.5,4.3,2.4
	c1.3,1,2.3,2.1,3.2,3.5c0.8,1.4,1.2,3,1.2,5v0.2c0,2.3-0.4,4.3-1.2,6c-0.8,1.7-2,3.1-3.4,4.2c-1.5,1.1-3.2,2-5.1,2.5
	C202.3,396.5,200.2,396.8,197.9,396.8"/>
<path class="st0" d="M240.4,396.9c-3.1,0-6-0.5-8.8-1.6c-2.7-1.1-5.1-2.6-7.1-4.6s-3.6-4.3-4.7-7.1c-1.2-2.8-1.7-5.8-1.7-9.2v-0.2
	c0-3.1,0.5-6.1,1.6-8.8c1-2.7,2.5-5.1,4.4-7.2s4.1-3.7,6.7-4.9c2.6-1.2,5.4-1.8,8.6-1.8c3.5,0,6.5,0.6,9.1,1.9
	c2.6,1.3,4.8,3,6.5,5.1s3,4.6,3.9,7.4c0.9,2.8,1.3,5.8,1.3,8.9c0,0.4,0,0.9,0,1.4s-0.1,0.9-0.1,1.4h-31.9c0.5,3.6,2,6.3,4.2,8.2
	c2.3,1.9,5,2.8,8.3,2.8c2.5,0,4.6-0.4,6.4-1.3c1.8-0.9,3.6-2.2,5.4-3.9l5.8,5.2c-2.1,2.5-4.6,4.4-7.4,5.9
	C247.8,396.2,244.4,396.9,240.4,396.9 M250.3,371.2c-0.2-1.6-0.5-3.1-1.1-4.5s-1.3-2.6-2.2-3.6c-0.9-1-2-1.8-3.3-2.4
	s-2.8-0.9-4.4-0.9c-3.1,0-5.6,1.1-7.6,3.2s-3.2,4.9-3.7,8.3h22.3V371.2z"/>
<path class="st0" d="M266.5,352.5h10v9.8c1.4-3.3,3.3-5.9,5.8-7.9s5.7-2.9,9.5-2.7v10.5h-0.6c-2.2,0-4.2,0.4-6,1.1
	c-1.8,0.7-3.4,1.8-4.7,3.2c-1.3,1.4-2.3,3.2-3,5.4c-0.7,2.2-1.1,4.7-1.1,7.5v16.5h-10v-43.4H266.5z"/>
<path class="st0" d="M100.1,435.5c-1.7,0-3.3-0.3-4.8-0.9s-2.7-1.5-3.8-2.6c-1.1-1.1-1.9-2.3-2.5-3.8s-0.9-3-0.9-4.6v-0.1
	c0-1.6,0.3-3.2,0.9-4.6c0.6-1.5,1.4-2.8,2.5-3.8c1.1-1.1,2.3-2,3.8-2.6c1.5-0.6,3.1-1,4.8-1c2.2,0,4,0.4,5.4,1.1
	c1.4,0.7,2.7,1.7,3.8,2.9L106,419c-0.8-0.8-1.7-1.5-2.6-2.1c-0.9-0.5-2-0.8-3.4-0.8c-1,0-1.9,0.2-2.7,0.6c-0.8,0.4-1.5,0.9-2.1,1.6
	c-0.6,0.7-1,1.4-1.4,2.3c-0.3,0.9-0.5,1.8-0.5,2.8v0.1c0,1,0.2,2,0.5,2.9c0.3,0.9,0.8,1.7,1.4,2.4c0.6,0.7,1.3,1.2,2.2,1.6
	c0.8,0.4,1.8,0.6,2.8,0.6c1.2,0,2.4-0.3,3.3-0.8c0.9-0.5,1.8-1.2,2.7-2.1l3.2,3.1c-1.1,1.3-2.4,2.3-3.9,3.1
	C104.2,435.1,102.4,435.5,100.1,435.5"/>
<path class="st0" d="M123.2,435.5c-1.8,0-3.4-0.3-4.9-0.9s-2.8-1.5-3.9-2.6c-1.1-1.1-1.9-2.3-2.6-3.8c-0.6-1.5-0.9-3-0.9-4.6v-0.1
	c0-1.7,0.3-3.2,0.9-4.7c0.6-1.5,1.5-2.7,2.6-3.8c1.1-1.1,2.4-2,3.9-2.6c1.5-0.6,3.1-1,4.9-1c1.8,0,3.4,0.3,4.9,0.9s2.8,1.5,3.9,2.6
	c1.1,1.1,1.9,2.4,2.6,3.8c0.6,1.4,0.9,3,0.9,4.7v0.1c0,1.6-0.3,3.2-0.9,4.6c-0.6,1.5-1.5,2.7-2.6,3.8c-1.1,1.1-2.4,2-3.9,2.6
	C126.6,435.2,124.9,435.5,123.2,435.5 M123.3,430.9c1.1,0,2-0.2,2.9-0.6s1.6-0.9,2.2-1.6c0.6-0.7,1.1-1.5,1.4-2.3
	c0.3-0.9,0.5-1.8,0.5-2.8v-0.1c0-1-0.2-2-0.5-2.9s-0.8-1.7-1.5-2.4c-0.6-0.7-1.4-1.2-2.2-1.6c-0.9-0.4-1.8-0.6-2.8-0.6
	s-2,0.2-2.8,0.6c-0.9,0.4-1.6,0.9-2.2,1.6c-0.6,0.7-1.1,1.4-1.4,2.3c-0.3,0.9-0.5,1.8-0.5,2.8v0.1c0,1,0.2,2,0.5,2.9
	s0.8,1.7,1.5,2.4c0.6,0.7,1.4,1.2,2.2,1.6C121.3,430.7,122.2,430.9,123.3,430.9"/>
<path class="st0" d="M138.7,411.9h5.3v3.6c0.4-0.6,0.8-1.1,1.2-1.6s1-0.9,1.6-1.3s1.2-0.7,2-0.9c0.7-0.2,1.5-0.3,2.4-0.3
	c2.6,0,4.6,0.8,6.1,2.4c1.4,1.6,2.1,3.8,2.1,6.5V435h-5.3v-13.1c0-1.8-0.4-3.2-1.3-4.2s-2.1-1.5-3.6-1.5s-2.8,0.5-3.7,1.5
	c-1,1-1.4,2.4-1.4,4.2v13h-5.3v-23H138.7z"/>
<path class="st0" d="M171.5,435.4c-1.7,0-3.3-0.3-5-0.9c-1.7-0.6-3.3-1.5-4.7-2.6l2.4-3.6c1.3,0.9,2.5,1.6,3.8,2.1s2.5,0.7,3.7,0.7
	c1.1,0,2-0.2,2.6-0.7s0.9-1.1,0.9-1.8v-0.1c0-0.4-0.1-0.8-0.4-1.1c-0.3-0.3-0.7-0.6-1.1-0.8c-0.5-0.2-1-0.5-1.7-0.7
	c-0.6-0.2-1.3-0.4-1.9-0.6c-0.8-0.2-1.7-0.5-2.6-0.8c-0.9-0.3-1.6-0.7-2.3-1.2c-0.7-0.5-1.2-1.1-1.7-1.9c-0.4-0.8-0.7-1.7-0.7-2.8
	v-0.1c0-1.1,0.2-2,0.6-2.9s1-1.6,1.7-2.2c0.7-0.6,1.6-1.1,2.6-1.4c1-0.3,2.1-0.5,3.2-0.5c1.5,0,2.9,0.2,4.4,0.7s2.8,1.1,4.1,1.9
	l-2.1,3.8c-1.1-0.7-2.2-1.2-3.4-1.6c-1.1-0.4-2.2-0.6-3.1-0.6c-1,0-1.8,0.2-2.4,0.7c-0.6,0.4-0.9,1-0.9,1.7l0,0
	c0,0.4,0.1,0.8,0.4,1.1s0.7,0.6,1.2,0.8s1,0.5,1.7,0.7c0.6,0.2,1.3,0.4,1.9,0.6c0.8,0.3,1.7,0.6,2.5,0.9c0.8,0.3,1.6,0.8,2.3,1.3
	c0.7,0.5,1.2,1.1,1.7,1.9c0.4,0.7,0.7,1.6,0.7,2.7v0.1c0,1.2-0.2,2.3-0.7,3.2c-0.4,0.9-1,1.7-1.8,2.2c-0.8,0.6-1.7,1-2.7,1.3
	C173.8,435.2,172.7,435.4,171.5,435.4"/>
<path class="st0" d="M191.2,435.4c-2.6,0-4.6-0.8-6.1-2.4c-1.4-1.6-2.1-3.8-2.1-6.5v-14.6h5.3V425c0,1.8,0.4,3.2,1.3,4.2
	s2.1,1.5,3.6,1.5s2.8-0.5,3.7-1.5c1-1,1.4-2.4,1.4-4.2v-13h5.3v23.1h-5.3v-3.6c-0.8,1.1-1.7,2.1-2.8,2.9
	C194.4,435,193,435.4,191.2,435.4"/>
<rect x="208.5" y="403.1" class="st0" width="5.3" height="31.9"/>
<path class="st0" d="M226.2,435.3c-1,0-1.9-0.1-2.7-0.3c-0.8-0.2-1.5-0.6-2.1-1.1s-1.1-1.2-1.4-2.1c-0.3-0.9-0.5-1.9-0.5-3.2v-12.2
	h-2.9v-4.5h2.9v-6.3h5.3v6.3h6.2v4.5h-6.2v11.3c0,1,0.2,1.8,0.7,2.2c0.5,0.5,1.2,0.7,2.1,0.7c1.1,0,2.2-0.3,3.3-0.8v4.3
	c-0.7,0.4-1.4,0.7-2.1,0.9C228.1,435.2,227.2,435.3,226.2,435.3"/>
<path class="st0" d="M234.3,403.3h5.7v5h-5.7V403.3z M234.5,411.9h5.3V435h-5.3V411.9z"/>
<path class="st0" d="M244.5,411.9h5.3v3.6c0.4-0.6,0.8-1.1,1.2-1.6c0.4-0.5,1-0.9,1.6-1.3s1.2-0.7,2-0.9c0.7-0.2,1.5-0.3,2.4-0.3
	c2.6,0,4.6,0.8,6.1,2.4c1.4,1.6,2.1,3.8,2.1,6.5V435h-5.3v-13.1c0-1.8-0.4-3.2-1.3-4.2s-2.1-1.5-3.6-1.5s-2.8,0.5-3.7,1.5
	c-1,1-1.4,2.4-1.4,4.2v13h-5.3v-23H244.5z"/>
<path class="st0" d="M279.7,442c-3.8,0-7.3-0.9-10.3-2.7l2-4c1.2,0.8,2.5,1.4,3.8,1.8s2.8,0.7,4.4,0.7c2.4,0,4.2-0.6,5.4-1.8
	c1.3-1.2,1.9-3,1.9-5.3v-1.8c-1,1.3-2.1,2.3-3.4,3.1s-2.9,1.2-4.8,1.2c-1.4,0-2.7-0.2-3.9-0.7c-1.3-0.5-2.4-1.2-3.3-2.1
	c-1-0.9-1.8-2-2.3-3.4c-0.6-1.3-0.9-2.9-0.9-4.5v-0.1c0-1.7,0.3-3.2,0.9-4.6c0.6-1.4,1.4-2.5,2.3-3.4c1-0.9,2.1-1.6,3.4-2.1
	s2.6-0.7,3.9-0.7c1.9,0,3.6,0.4,4.8,1.2c1.3,0.8,2.4,1.7,3.3,2.8v-3.5h5.3v18.3c0,3.8-1,6.7-2.9,8.7c-1,1-2.4,1.8-4,2.3
	C283.6,441.8,281.8,442,279.7,442 M280.1,428.7c0.9,0,1.8-0.2,2.6-0.5c0.8-0.3,1.6-0.7,2.2-1.3s1.1-1.2,1.5-2
	c0.4-0.8,0.5-1.6,0.5-2.6v-0.1c0-1-0.2-1.8-0.5-2.6c-0.4-0.8-0.9-1.4-1.5-2s-1.3-1-2.2-1.3c-0.8-0.3-1.7-0.5-2.6-0.5
	s-1.8,0.2-2.6,0.5c-0.8,0.3-1.5,0.7-2.1,1.3s-1.1,1.2-1.4,2s-0.5,1.6-0.5,2.6v0.1c0,1,0.2,1.8,0.5,2.6c0.3,0.8,0.8,1.4,1.4,2
	s1.3,1,2.1,1.3C278.3,428.5,279.2,428.7,280.1,428.7"/>
</svg>
